{
  "usingComponents": {
    "statement": "/components/statement/statement",
    "empty": "/components/empty/empty",
    "pie": "/components/pie/pie",
    "help": "/components/help/help",
    "stock-graph": "/components/stock-graph/stock-graph"
  }
}
